level	start	end	color	opacity	title	initiation	in	out	children	parents	prof_uid
1	5027917	5028384	#f4ff00	1.0	Mapper Call select_task_options						22
1	5032227	5032244	#FFC0CB	1.0	ProfTask <1>						24
1	5033696	5033708	#FFC0CB	1.0	ProfTask <3>						26
1	5033904	5033915	#FFC0CB	1.0	ProfTask						28
1	5035264	5035272	#FFC0CB	1.0	ProfTask <5>						30
1	5035565	5035570	#FFC0CB	1.0	ProfTask <6>						32
1	5036860	5036909	#FFC0CB	1.0	ProfTask <3>						34
1	5037022	5037034	#FFC0CB	1.0	ProfTask <7>						36
1	5037788	5037791	#FFC0CB	1.0	ProfTask <6>						38
1	5037880	5037885	#FFC0CB	1.0	ProfTask <6>						40
1	5040355	5040367	#FFC0CB	1.0	ProfTask <8>						42
1	5041339	5041343	#FFC0CB	1.0	ProfTask <9>						44
1	5041501	5041504	#FFC0CB	1.0	ProfTask <10>						46
