time	count
0.00	0.00
5031166.00	0.25
5031580.00	0.00
5033150.00	0.25
5033565.00	0.00
5035352.00	0.25
5035447.00	0.50
5035554.00	0.25
5036571.00	0.50
5036583.00	0.25
5036609.00	0.00
5036696.00	0.25
5036711.00	0.00
5036853.00	0.25
5036863.00	0.00
5036911.00	0.25
5036915.00	0.00
5037100.00	0.25
5037112.00	0.00
5037114.00	0.25
5037226.00	0.50
5037229.00	0.25
5037230.00	0.00
5037257.00	0.25
5037261.00	0.00
5037461.00	0.25
5037471.00	0.00
5038313.00	0.25
5038326.00	0.50
5038328.00	0.75
5038330.00	0.50
5038339.00	0.75
5038342.00	1.00
5038354.00	0.75
5038370.00	1.00
5038373.00	0.75
5038387.00	1.00
5038390.00	0.75
5038576.00	1.00
5038579.00	0.75
5038670.00	0.50
5038677.00	0.25
5038737.00	0.00
5038749.00	0.25
5038785.00	0.50
5038796.00	0.25
5038797.00	0.00
5038811.00	0.50
5038819.00	0.25
5038822.00	0.00
5038836.00	0.25
5038881.00	0.50
5038887.00	0.25
5038943.00	0.50
5038949.00	0.25
5038974.00	0.00
5038988.00	0.25
5038996.00	0.00
5039021.00	0.25
5039024.00	0.00
5039032.00	0.25
5039040.00	0.00
5039172.00	0.25
5039175.00	0.00
5039351.00	0.25
5039356.00	0.00
5039456.00	0.25
5039459.00	0.00
5039589.00	0.25
5039621.00	0.00
5039766.00	0.25
5039777.00	0.00
5039841.00	0.25
5039966.00	0.00
5040003.00	0.25
5040015.00	0.50
5040018.00	0.25
5040021.00	0.00
5040047.00	0.25
5040064.00	0.00
5040082.00	0.25
5040092.00	0.50
5040097.00	0.25
5040149.00	0.50
5040159.00	0.25
5040177.00	0.50
5040178.00	0.25
5040200.00	0.00
5040225.00	0.25
5040230.00	0.00
5040272.00	0.25
5040277.00	0.00
5040293.00	0.25
5040303.00	0.00
5040362.00	0.25
5040364.00	0.50
5040371.00	0.25
5040425.00	0.50
5040429.00	0.25
5040443.00	0.25
5040446.00	0.00
5040491.00	0.25
5040496.00	0.00
5040552.00	0.25
5040555.00	0.00
5040560.00	0.25
5040570.00	0.00
5040684.00	0.25
5040687.00	0.00
5040762.00	0.25
5040844.00	0.00
5040980.00	0.25
5040986.00	0.00
5041001.00	0.25
5041266.00	0.00
5041792.00	0.25
5041805.00	0.00
5041820.00	0.25
5041825.00	0.00
