time	count
0.00	0.00
5031896.00	0.50
5032374.00	0.00
5035201.00	0.50
5035556.00	0.00
5036216.00	0.50
5036239.00	0.00
5037331.00	0.50
5037359.00	1.00
5037389.00	0.50
5040508.00	1.00
5040519.00	0.50
5040848.00	1.00
5040852.00	0.50
5041083.00	1.00
5041088.00	0.50
5041428.00	1.00
5041438.00	0.50
5041558.00	1.00
5041562.00	0.50
5041738.00	1.00
5041742.00	0.50
5041853.00	1.00
5041857.00	0.50
5041914.00	0.00
5042009.00	0.50
5042013.00	0.00
5042131.00	0.50
5042135.00	0.00
5042298.00	0.50
5042307.00	0.00
5043065.00	0.50
5043073.00	1.00
5043078.00	0.50
5043458.00	0.00
5043549.00	0.50
5043582.00	0.00
5043745.00	0.50
5043762.00	0.00
5044039.00	0.50
5044079.00	1.00
5044088.00	0.50
5044122.00	0.00
5044180.00	0.50
5044185.00	0.00
5044212.00	0.50
5044243.00	0.00
5044370.00	0.50
5044375.00	0.00
5044652.00	0.50
5044694.00	1.00
5044698.00	0.50
5044747.00	0.00
5044803.00	0.50
5044812.00	0.00
5044928.00	0.50
5044942.00	1.00
5044953.00	0.50
5045055.00	0.00
5045059.00	0.50
5045062.00	0.00
5045171.00	0.50
5045177.00	0.00
5045240.00	0.50
5045255.00	0.00
5045572.00	0.50
5045575.00	0.00
5046306.00	0.50
5046311.00	0.00
5046468.00	0.50
5046483.00	0.00
5046572.00	0.50
5046578.00	0.00
5046684.00	0.50
5046690.00	0.00
5046938.00	0.50
5046975.00	1.00
5046980.00	0.50
5047049.00	0.00
5047104.00	0.50
5047111.00	0.00
5047257.00	0.50
5047294.00	1.00
5047303.00	0.50
5047327.00	0.00
5047409.00	0.50
5047413.00	0.00
5047426.00	0.50
5047429.00	0.00
5047580.00	0.50
5047590.00	0.00
5047718.00	0.50
5047724.00	0.00
5047847.00	0.50
5047852.00	0.00
5047958.00	0.50
5047962.00	0.00
5048154.00	0.50
5048187.00	1.00
5048192.00	0.50
5048289.00	0.00
5048317.00	0.50
5048322.00	0.00
5048347.00	0.50
5048351.00	0.00
5048472.00	0.50
5048483.00	0.00
5048570.00	0.50
5048576.00	0.00
5048683.00	0.50
5048688.00	0.00
5048968.00	0.50
5048995.00	1.00
5049001.00	0.50
5049133.00	0.00
5049191.00	0.50
5049196.00	0.00
5049272.00	0.50
5049292.00	0.00
5049540.00	0.50
5049553.00	0.00
5049750.00	0.50
5050350.00	0.00
5050422.00	0.50
5050464.00	0.00
5050860.00	0.50
5050900.00	0.00
5051028.00	0.50
5051033.00	0.00
