level	start	end	color	opacity	title	initiation	in	out	children	parents	prof_uid
2	5052023	5052251	#ff0011	1.0	Deferred Enqueue Task	1					120
2	5052945	5053958	#cdff00	1.0	Task Physical Dependence Analysis	1					16
2	5054982	5055402	#0069ff	1.0	Logical Dependence Analysis	3					18
2	5055514	5055644	#0a00ff	1.0	Scheduler	0					20
2	5055720	5056404	#cdff00	1.0	Task Physical Dependence Analysis	3					295
1	5055757	5056109	#ff8300	1.0	Mapper Call map_task for 3	3					403
2	5056487	5056542	#333399	1.0	Deferred Ready Trigger	4					121
2	5056605	5056705	#0a00ff	1.0	Scheduler	0					122
2	5056770	5056829	#333399	1.0	Deferred Ready Trigger	9					296
2	5056892	5056978	#0a00ff	1.0	Scheduler	0					298
2	5057040	5058123	#0069ff	1.0	Logical Dependence Analysis	13					127
2	5058200	5058257	#333399	1.0	Deferred Ready Trigger	18					128
2	5058327	5058420	#0a00ff	1.0	Scheduler	0					130
2	5058506	5058594	#0a00ff	1.0	Scheduler	0					131
2	5058667	5058744	#333399	1.0	Deferred Ready Trigger	27					22
2	5058798	5058907	#0069ff	1.0	Logical Dependence Analysis	29					419
2	5059030	5059235	#cdff00	1.0	Task Physical Dependence Analysis	6					302
2	5059313	5059385	#333399	1.0	Deferred Ready Trigger	5					303
2	5059452	5059541	#0a00ff	1.0	Scheduler	0					133
2	5059606	5059852	#cdff00	1.0	Task Physical Dependence Analysis	9					304
2	5059918	5059977	#333399	1.0	Deferred Ready Trigger	10					306
2	5060037	5060124	#0a00ff	1.0	Scheduler	0					134
2	5060189	5060446	#cdff00	1.0	Task Physical Dependence Analysis	15					135
2	5060512	5060569	#333399	1.0	Deferred Ready Trigger	16					423
2	5060614	5060716	#0a00ff	1.0	Scheduler	0					137
2	5060802	5061007	#cdff00	1.0	Task Physical Dependence Analysis	24					308
2	5061070	5061119	#333399	1.0	Deferred Ready Trigger	25					30
2	5061171	5061263	#0a00ff	1.0	Scheduler	0					309
2	5061318	5061514	#006600	1.0	Post-Task Execution	6					311
2	5061572	5061626	#333399	1.0	Deferred Ready Trigger	28					425
2	5061696	5061771	#be00ff	1.0	Deferred Post-Task Execution	4					141
2	5061843	5061891	#be00ff	1.0	Deferred Post-Task Execution	9					143
2	5061957	5062000	#be00ff	1.0	Deferred Post-Task Execution	18					145
2	5062065	5062107	#be00ff	1.0	Deferred Post-Task Execution	21					147
2	5062174	5062353	#cdff00	1.0	Task Physical Dependence Analysis	5					312
2	5062419	5062480	#333399	1.0	Deferred Ready Trigger	8					149
2	5062536	5062733	#cdff00	1.0	Task Physical Dependence Analysis	10					31
2	5062801	5062898	#0a00ff	1.0	Scheduler	0					151
2	5062978	5063037	#333399	1.0	Deferred Ready Trigger	14					314
2	5063087	5063199	#0a00ff	1.0	Scheduler	0					152
2	5063270	5063327	#333399	1.0	Deferred Ready Trigger	20					427
2	5063396	5063595	#cdff00	1.0	Task Physical Dependence Analysis	16					316
2	5063666	5063790	#0a00ff	1.0	Scheduler	0					154
2	5063860	5063916	#333399	1.0	Deferred Ready Trigger	23					428
2	5063964	5064052	#0a00ff	1.0	Scheduler	0					155
2	5064118	5064173	#333399	1.0	Deferred Ready Trigger	26					318
2	5064228	5064317	#0a00ff	1.0	Scheduler	0					156
2	5064382	5064439	#be00ff	1.0	Deferred Post-Task Execution	27					157
2	5064508	5064573	#be00ff	1.0	Deferred Post-Task Execution	5					158
2	5064648	5064702	#be00ff	1.0	Deferred Post-Task Execution	10					160
2	5064770	5064823	#be00ff	1.0	Deferred Post-Task Execution	19					162
2	5064900	5064952	#be00ff	1.0	Deferred Post-Task Execution	22					164
2	5065017	5065195	#cdff00	1.0	Task Physical Dependence Analysis	28					37
2	5065255	5065329	#333399	1.0	Deferred Ready Trigger	29					38
2	5065410	5065507	#0a00ff	1.0	Scheduler	0					321
2	5065590	5065761	#cdff00	1.0	Task Physical Dependence Analysis	20					41
2	5065825	5066015	#cdff00	1.0	Task Physical Dependence Analysis	23					44
2	5066079	5066251	#006600	1.0	Post-Task Execution	28					323
2	5066309	5066372	#be00ff	1.0	Deferred Post-Task Execution	8					431
2	5066442	5066496	#be00ff	1.0	Deferred Post-Task Execution	14					167
2	5066561	5066611	#be00ff	1.0	Deferred Post-Task Execution	17					169
2	5066687	5066857	#cdff00	1.0	Task Physical Dependence Analysis	29					324
2	5066927	5066995	#be00ff	1.0	Deferred Post-Task Execution	26					171
2	5067084	5067490	#be00ff	1.0	Deferred Post-Task Execution	29					328
