full_text	text	tsv	levels
Utility Processor 0x1d00000000000000	Utility Proc 0	tsv/Proc_0x1d00000000000000.tsv	2
Utility Processor 0x1d00000000000001	Utility Proc 1	tsv/Proc_0x1d00000000000001.tsv	2
CPU Processor 0x1d00000000000002	CPU Proc 2	tsv/Proc_0x1d00000000000002.tsv	1
CPU Processor 0x1d00000000000003	CPU Proc 3	tsv/Proc_0x1d00000000000003.tsv	2
